{
  "kind": "collectionType",
  "collectionName": "transfer_requests",
  "info": {
    "name": "TransferRequest",
    "description": ""
  },
  "options": {
    "increments": true,
    "timestamps": true,
    "draftAndPublish": true
  },
  "pluginOptions": {},
  "attributes": {
    "student": {
      "unique": true,
      "model": "student"
    },
    "from_institution": {
      "model": "institution"
    },
    "to_institution": {
      "model": "institution"
    },
    "field_id": {
      "type": "uid",
      "required": true,
      "private": false
    }
  }
}
