{
  "kind": "collectionType",
  "collectionName": "graduates",
  "info": {
    "name": "Graduates",
    "description": ""
  },
  "options": {
    "increments": true,
    "timestamps": true,
    "draftAndPublish": true
  },
  "pluginOptions": {},
  "attributes": {
    "full_name": {
      "type": "string",
      "required": true
    },
    "phone_number": {
      "type": "string",
      "required": true,
      "unique": true
    },
    "generated_school_id": {
      "type": "string",
      "required": true,
      "unique": true
    },
    "institution": {
      "model": "institution"
    }
  }
}
