{
  "kind": "collectionType",
  "collectionName": "subscriptions",
  "info": {
    "name": "Subscription",
    "description": ""
  },
  "options": {
    "increments": true,
    "timestamps": true,
    "draftAndPublish": true
  },
  "pluginOptions": {},
  "attributes": {
    "status": {
      "type": "enumeration",
      "enum": [
        "active",
        "inactive"
      ],
      "required": true,
      "default": "inactive"
    },
    "institution": {
      "model": "institution",
      "via": "subscription"
    },
    "product": {
      "model": "product"
    },
    "invoice_status": {
      "type": "enumeration",
      "enum": [
        "active",
        "inactive",
        "open",
        "close",
        "void"
      ],
      "default": "inactive",
      "required": true
    }
  }
}
